Chapter 12 Importar y exportar datos | R Tutorial Example
…
Se intenta importar la pestaña trees.

trees_excel <- read_excel(path = "Bases/data_frames.xlsx", sheet = "trees")

## New names:
## • `` -> `...2`
## • `` -> `...3`
## • `` -> `...4`
## • `` -> `...5`
## • `` -> `...6`

# Resultado
trees_excel

## # A tibble: 34 × 6
##    `Datos trees`  ...2  ...3  ...4 ...5  ...6                                                   
##    <chr>         <dbl> <dbl> <dbl> <lgl> <chr>                                                  
##  1 <NA>           NA      NA  NA   NA    <NA>                                                   
##  2 <NA>            8.3    70  10.3 NA    <NA>                                                   
##  3 <NA>            8.6    65  10.3 NA    <NA>                                                   
##  4 <NA>            8.8    63  10.2 NA    Los nombres de las variables son: Girth, Height, Volume
##  5 <NA>           10.5    72  16.4 NA    <NA>                                                   
##  6 <NA>           10.7    81  18.8 NA    <NA>                                                   
##  7 <NA>           10.8    83  19.7 NA    <NA>                                                   
##  8 <NA>           11      66  15.6 NA    <NA>                                                   
##  9 <NA>           11      75  18.2 NA    <NA>                                                   
## 10 <NA>           11.1    80  22.6 NA    <NA>                                                   
## # … with 24 more rows

Los resultados no lucen correctamente porque los datos en la pestaña no tienen forma de tabla.

Se ajustan los argumentos de read_excel() para leer correctamente la información de la pestaña. Al explorar manualmente el archivo data.frames.xlsx, se pueden localizar el rango en el que se encuentran los datos (de las celdas B3 a D33) y los nombres de las columnas (Girth, Height y Volume).

Se prueba importar de nuevo con esta información.

trees_excel <- read_excel(path = "Bases/data_frames.xlsx", sheet = "trees", 
                          range = "B3:D33", 
                          col_names = c("Girth", "Height", "Volume"))
# Resultado
trees_excel

## # A tibble: 31 × 3
##    Girth Height Volume
##    <dbl>  <dbl>  <dbl>
##  1   8.3     70   10.3
##  2   8.6     65   10.3
##  3   8.8     63   10.2
##  4  10.5     72   16.4
##  5  10.7     81   18.8
##  6  10.8     83   19.7
##  7  11       66   15.6
##  8  11       75   18.2
##  9  11.1     80   22.6
## 10  11.2     75   19.9
## # … with 21 more rows
…
